{
    "id": "4fa92312-9616-4605-885a-dc3d9a275cce",
    "realm": "PHT-Station",
    "displayName": "",
    "displayNameHtml": "",
    "notBefore": 0,
    "defaultSignatureAlgorithm": "RS256",
    "revokeRefreshToken": false,
    "refreshTokenMaxReuse": 0,
    "accessTokenLifespan": 300,
    "accessTokenLifespanForImplicitFlow": 900,
    "ssoSessionIdleTimeout": 1800,
    "ssoSessionMaxLifespan": 36000,
    "ssoSessionIdleTimeoutRememberMe": 0,
    "ssoSessionMaxLifespanRememberMe": 0,
    "offlineSessionIdleTimeout": 2592000,
    "offlineSessionMaxLifespanEnabled": false,
    "offlineSessionMaxLifespan": 5184000,
    "clientSessionIdleTimeout": 0,
    "clientSessionMaxLifespan": 0,
    "clientOfflineSessionIdleTimeout": 0,
    "clientOfflineSessionMaxLifespan": 0,
    "accessCodeLifespan": 60,
    "accessCodeLifespanUserAction": 300,
    "accessCodeLifespanLogin": 1800,
    "actionTokenGeneratedByAdminLifespan": 43200,
    "actionTokenGeneratedByUserLifespan": 300,
    "oauth2DeviceCodeLifespan": 600,
    "oauth2DevicePollingInterval": 5,
    "enabled": true,
    "sslRequired": "none",
    "registrationAllowed": true,
    "registrationEmailAsUsername": false,
    "rememberMe": true,
    "verifyEmail": false,
    "loginWithEmailAllowed": true,
    "duplicateEmailsAllowed": false,
    "resetPasswordAllowed": true,
    "editUsernameAllowed": false,
    "bruteForceProtected": false,
    "permanentLockout": false,
    "maxFailureWaitSeconds": 900,
    "minimumQuickLoginWaitSeconds": 60,
    "waitIncrementSeconds": 60,
    "quickLoginCheckMilliSeconds": 1000,
    "maxDeltaTimeSeconds": 43200,
    "failureFactor": 30,
    "roles": {
        "realm": [
            {
                "id": "15fa65f4-9be0-4a98-a7f7-fd4cb240a2d8",
                "name": "uma_authorization",
                "description": "${role_uma_authorization}",
                "composite": false,
                "clientRole": false,
                "containerId": "4fa92312-9616-4605-885a-dc3d9a275cce",
                "attributes": {}
            },
            {
                "id": "6321d655-382a-440b-9ed8-547e3443c266",
                "name": "station-user",
                "description": "Station Users",
                "composite": false,
                "clientRole": false,
                "containerId": "4fa92312-9616-4605-885a-dc3d9a275cce",
                "attributes": {}
            },
            {
                "id": "9387ef66-f5bd-4e90-be86-186dbb143948",
                "name": "station-admin",
                "description": "Station Admins",
                "composite": false,
                "clientRole": false,
                "containerId": "4fa92312-9616-4605-885a-dc3d9a275cce",
                "attributes": {}
            },
            {
                "id": "d003aa2b-b053-45a0-a863-4b63ed6b6ce7",
                "name": "offline_access",
                "description": "${role_offline-access}",
                "composite": false,
                "clientRole": false,
                "containerId": "4fa92312-9616-4605-885a-dc3d9a275cce",
                "attributes": {}
            },
            {
                "id": "903106b8-298f-4718-8f2c-b5519ba23c50",
                "name": "default-roles-pht-station",
                "description": "${role_default-roles}",
                "composite": true,
                "composites": {
                    "realm": [
                        "offline_access",
                        "uma_authorization"
                    ],
                    "client": {
                        "account": [
                            "view-profile",
                            "manage-account"
                        ]
                    }
                },
                "clientRole": false,
                "containerId": "4fa92312-9616-4605-885a-dc3d9a275cce",
                "attributes": {}
            }
        ],
        "client": {
            "realm-management": [
                {
                    "id": "05aa7b8f-6d62-48e2-a2f2-614271b704c1",
                    "name": "manage-identity-providers",
                    "description": "${role_manage-identity-providers}",
                    "composite": false,
                    "clientRole": true,
                    "containerId": "32a07ceb-7010-4b90-9f39-1172e555c699",
                    "attributes": {}
                },
                {
                    "id": "80557f56-861e-4f05-988a-3de7e4d34cd7",
                    "name": "manage-users",
                    "description": "${role_manage-users}",
                    "composite": false,
                    "clientRole": true,
                    "containerId": "32a07ceb-7010-4b90-9f39-1172e555c699",
                    "attributes": {}
                },
                {
                    "id": "84a8e6b2-d103-44f2-9114-b2481f12460e",
                    "name": "view-clients",
                    "description": "${role_view-clients}",
                    "composite": true,
                    "composites": {
                        "client": {
                            "realm-management": [
                                "query-clients"
                            ]
                        }
                    },
                    "clientRole": true,
                    "containerId": "32a07ceb-7010-4b90-9f39-1172e555c699",
                    "attributes": {}
                },
                {
                    "id": "43aba5f0-7d60-43df-b63a-2c851b20437f",
                    "name": "query-users",
                    "description": "${role_query-users}",
                    "composite": false,
                    "clientRole": true,
                    "containerId": "32a07ceb-7010-4b90-9f39-1172e555c699",
                    "attributes": {}
                },
                {
                    "id": "f5423661-2fcd-45ee-b97c-ec62d0423811",
                    "name": "manage-clients",
                    "description": "${role_manage-clients}",
                    "composite": false,
                    "clientRole": true,
                    "containerId": "32a07ceb-7010-4b90-9f39-1172e555c699",
                    "attributes": {}
                },
                {
                    "id": "a9026d9b-7cc4-415b-9461-503025e2737b",
                    "name": "view-identity-providers",
                    "description": "${role_view-identity-providers}",
                    "composite": false,
                    "clientRole": true,
                    "containerId": "32a07ceb-7010-4b90-9f39-1172e555c699",
                    "attributes": {}
                },
                {
                    "id": "8f8e17b2-0948-4228-94ae-f5f2bf139474",
                    "name": "realm-admin",
                    "description": "${role_realm-admin}",
                    "composite": true,
                    "composites": {
                        "client": {
                            "realm-management": [
                                "manage-identity-providers",
                                "manage-users",
                                "view-clients",
                                "query-users",
                                "view-identity-providers",
                                "manage-clients",
                                "view-events",
                                "manage-realm",
                                "manage-authorization",
                                "query-groups",
                                "view-realm",
                                "create-client",
                                "view-authorization",
                                "query-realms",
                                "query-clients",
                                "impersonation",
                                "view-users",
                                "manage-events"
                            ]
                        }
                    },
                    "clientRole": true,
                    "containerId": "32a07ceb-7010-4b90-9f39-1172e555c699",
                    "attributes": {}
                },
                {
                    "id": "f755f217-a431-4765-ab2a-c0987d16811c",
                    "name": "view-events",
                    "description": "${role_view-events}",
                    "composite": false,
                    "clientRole": true,
                    "containerId": "32a07ceb-7010-4b90-9f39-1172e555c699",
                    "attributes": {}
                },
                {
                    "id": "e4788d35-064f-4184-abf4-d922eb547325",
                    "name": "manage-realm",
                    "description": "${role_manage-realm}",
                    "composite": false,
                    "clientRole": true,
                    "containerId": "32a07ceb-7010-4b90-9f39-1172e555c699",
                    "attributes": {}
                },
                {
                    "id": "0b1e3d75-e5f6-4c0c-8277-883d091db839",
                    "name": "manage-authorization",
                    "description": "${role_manage-authorization}",
                    "composite": false,
                    "clientRole": true,
                    "containerId": "32a07ceb-7010-4b90-9f39-1172e555c699",
                    "attributes": {}
                },
                {
                    "id": "387f7bfb-0e7f-4870-ba3e-90a70b3dcc10",
                    "name": "query-groups",
                    "description": "${role_query-groups}",
                    "composite": false,
                    "clientRole": true,
                    "containerId": "32a07ceb-7010-4b90-9f39-1172e555c699",
                    "attributes": {}
                },
                {
                    "id": "f35da5dd-4896-4552-8c6a-684183dd2715",
                    "name": "create-client",
                    "description": "${role_create-client}",
                    "composite": false,
                    "clientRole": true,
                    "containerId": "32a07ceb-7010-4b90-9f39-1172e555c699",
                    "attributes": {}
                },
                {
                    "id": "6f2b8b14-4e3c-4faf-82d2-135f91fdb4bc",
                    "name": "view-realm",
                    "description": "${role_view-realm}",
                    "composite": false,
                    "clientRole": true,
                    "containerId": "32a07ceb-7010-4b90-9f39-1172e555c699",
                    "attributes": {}
                },
                {
                    "id": "90034536-57b8-4b4d-abc5-32c8a1078919",
                    "name": "view-authorization",
                    "description": "${role_view-authorization}",
                    "composite": false,
                    "clientRole": true,
                    "containerId": "32a07ceb-7010-4b90-9f39-1172e555c699",
                    "attributes": {}
                },
                {
                    "id": "b49fd5c3-8327-4a2f-b6c2-8f51b8b9e69c",
                    "name": "query-realms",
                    "description": "${role_query-realms}",
                    "composite": false,
                    "clientRole": true,
                    "containerId": "32a07ceb-7010-4b90-9f39-1172e555c699",
                    "attributes": {}
                },
                {
                    "id": "657aad5b-6b7f-45fc-9e93-29b2e5958219",
                    "name": "impersonation",
                    "description": "${role_impersonation}",
                    "composite": false,
                    "clientRole": true,
                    "containerId": "32a07ceb-7010-4b90-9f39-1172e555c699",
                    "attributes": {}
                },
                {
                    "id": "2fc5aa1b-f8a7-4d99-9a95-289eaf42c8e5",
                    "name": "query-clients",
                    "description": "${role_query-clients}",
                    "composite": false,
                    "clientRole": true,
                    "containerId": "32a07ceb-7010-4b90-9f39-1172e555c699",
                    "attributes": {}
                },
                {
                    "id": "8140daf6-0c7d-43fd-8d8e-cf3166b2e232",
                    "name": "view-users",
                    "description": "${role_view-users}",
                    "composite": true,
                    "composites": {
                        "client": {
                            "realm-management": [
                                "query-users",
                                "query-groups"
                            ]
                        }
                    },
                    "clientRole": true,
                    "containerId": "32a07ceb-7010-4b90-9f39-1172e555c699",
                    "attributes": {}
                },
                {
                    "id": "11d716ea-2e33-48d0-a5a1-58096bc96d7d",
                    "name": "manage-events",
                    "description": "${role_manage-events}",
                    "composite": false,
                    "clientRole": true,
                    "containerId": "32a07ceb-7010-4b90-9f39-1172e555c699",
                    "attributes": {}
                }
            ],
            "pht-web-backend": [
                {
                    "id": "43d22b32-9e2d-42f5-865d-56b382e4d9ba",
                    "name": "uma_protection",
                    "composite": false,
                    "clientRole": true,
                    "containerId": "ba5e787b-7686-41c0-b25d-7699cab7a9fb",
                    "attributes": {}
                }
            ],
            "security-admin-console": [],
            "admin-cli": [],
            "pht-web": [
                {
                    "id": "69b752bd-5b2f-4411-9df5-e103adc380a5",
                    "name": "uma_protection",
                    "composite": false,
                    "clientRole": true,
                    "containerId": "42a7a76f-c7d6-41bb-814e-a65bfb67c6ab",
                    "attributes": {}
                }
            ],
            "account-console": [],
            "broker": [
                {
                    "id": "f6129784-490e-4052-b866-2d447901e4d4",
                    "name": "read-token",
                    "description": "${role_read-token}",
                    "composite": false,
                    "clientRole": true,
                    "containerId": "3d70d935-7005-411b-96e4-2069bafb4798",
                    "attributes": {}
                }
            ],
            "account": [
                {
                    "id": "604015aa-bff3-4526-b1cd-aa61ce325325",
                    "name": "manage-account-links",
                    "description": "${role_manage-account-links}",
                    "composite": false,
                    "clientRole": true,
                    "containerId": "214abadb-bdc5-4180-9c9c-fd7d7c3e0e00",
                    "attributes": {}
                },
                {
                    "id": "a185b81d-97ad-44ac-8002-6dcc7815398b",
                    "name": "view-groups",
                    "description": "${role_view-groups}",
                    "composite": false,
                    "clientRole": true,
                    "containerId": "214abadb-bdc5-4180-9c9c-fd7d7c3e0e00",
                    "attributes": {}
                },
                {
                    "id": "77735b7e-7d90-4994-8513-f4fbff8597ba",
                    "name": "manage-consent",
                    "description": "${role_manage-consent}",
                    "composite": true,
                    "composites": {
                        "client": {
                            "account": [
                                "view-consent"
                            ]
                        }
                    },
                    "clientRole": true,
                    "containerId": "214abadb-bdc5-4180-9c9c-fd7d7c3e0e00",
                    "attributes": {}
                },
                {
                    "id": "bbe3e6e1-b14e-4b38-a944-71df34dc269d",
                    "name": "delete-account",
                    "description": "${role_delete-account}",
                    "composite": false,
                    "clientRole": true,
                    "containerId": "214abadb-bdc5-4180-9c9c-fd7d7c3e0e00",
                    "attributes": {}
                },
                {
                    "id": "a7fceb37-bfa4-4706-acf5-697945ac1419",
                    "name": "view-applications",
                    "description": "${role_view-applications}",
                    "composite": false,
                    "clientRole": true,
                    "containerId": "214abadb-bdc5-4180-9c9c-fd7d7c3e0e00",
                    "attributes": {}
                },
                {
                    "id": "df9c076c-6d2f-4d6d-a6a7-9b80139ee821",
                    "name": "view-profile",
                    "description": "${role_view-profile}",
                    "composite": false,
                    "clientRole": true,
                    "containerId": "214abadb-bdc5-4180-9c9c-fd7d7c3e0e00",
                    "attributes": {}
                },
                {
                    "id": "aff2c4ff-be6d-4e46-a1a6-9e6836f4c96c",
                    "name": "manage-account",
                    "description": "${role_manage-account}",
                    "composite": true,
                    "composites": {
                        "client": {
                            "account": [
                                "manage-account-links"
                            ]
                        }
                    },
                    "clientRole": true,
                    "containerId": "214abadb-bdc5-4180-9c9c-fd7d7c3e0e00",
                    "attributes": {}
                },
                {
                    "id": "998e5717-c24f-40f4-bbe9-9867d47bb148",
                    "name": "view-consent",
                    "description": "${role_view-consent}",
                    "composite": false,
                    "clientRole": true,
                    "containerId": "214abadb-bdc5-4180-9c9c-fd7d7c3e0e00",
                    "attributes": {}
                }
            ]
        }
    },
    "groups": [
        {
            "id": "71d2e7d9-8b96-44b6-9ffc-1aa3540aa214",
            "name": "station-users",
            "path": "/station-users",
            "attributes": {},
            "realmRoles": [
                "station-user"
            ],
            "clientRoles": {},
            "subGroups": []
        }
    ],
    "defaultRole": {
        "id": "903106b8-298f-4718-8f2c-b5519ba23c50",
        "name": "default-roles-pht-station",
        "description": "${role_default-roles}",
        "composite": true,
        "clientRole": false,
        "containerId": "4fa92312-9616-4605-885a-dc3d9a275cce"
    },
    "defaultGroups": [
        "/station-users"
    ],
    "requiredCredentials": [
        "password"
    ],
    "otpPolicyType": "totp",
    "otpPolicyAlgorithm": "HmacSHA1",
    "otpPolicyInitialCounter": 0,
    "otpPolicyDigits": 6,
    "otpPolicyLookAheadWindow": 1,
    "otpPolicyPeriod": 30,
    "otpPolicyCodeReusable": false,
    "otpSupportedApplications": [
        "totpAppFreeOTPName",
        "totpAppMicrosoftAuthenticatorName",
        "totpAppGoogleName"
    ],
    "webAuthnPolicyRpEntityName": "keycloak",
    "webAuthnPolicySignatureAlgorithms": [
        "ES256"
    ],
    "webAuthnPolicyRpId": "",
    "webAuthnPolicyAttestationConveyancePreference": "not specified",
    "webAuthnPolicyAuthenticatorAttachment": "not specified",
    "webAuthnPolicyRequireResidentKey": "not specified",
    "webAuthnPolicyUserVerificationRequirement": "not specified",
    "webAuthnPolicyCreateTimeout": 0,
    "webAuthnPolicyAvoidSameAuthenticatorRegister": false,
    "webAuthnPolicyAcceptableAaguids": [],
    "webAuthnPolicyPasswordlessRpEntityName": "keycloak",
    "webAuthnPolicyPasswordlessSignatureAlgorithms": [
        "ES256"
    ],
    "webAuthnPolicyPasswordlessRpId": "",
    "webAuthnPolicyPasswordlessAttestationConveyancePreference": "not specified",
    "webAuthnPolicyPasswordlessAuthenticatorAttachment": "not specified",
    "webAuthnPolicyPasswordlessRequireResidentKey": "not specified",
    "webAuthnPolicyPasswordlessUserVerificationRequirement": "not specified",
    "webAuthnPolicyPasswordlessCreateTimeout": 0,
    "webAuthnPolicyPasswordlessAvoidSameAuthenticatorRegister": false,
    "webAuthnPolicyPasswordlessAcceptableAaguids": [],
    "scopeMappings": [
        {
            "clientScope": "offline_access",
            "roles": [
                "offline_access"
            ]
        }
    ],
    "clientScopeMappings": {
        "account": [
            {
                "client": "account-console",
                "roles": [
                    "manage-account",
                    "view-groups"
                ]
            }
        ]
    },
    "clients": [
        {
            "id": "214abadb-bdc5-4180-9c9c-fd7d7c3e0e00",
            "clientId": "account",
            "name": "${client_account}",
            "rootUrl": "${authBaseUrl}",
            "baseUrl": "/realms/PHT-Station/account/",
            "surrogateAuthRequired": false,
            "enabled": true,
            "alwaysDisplayInConsole": false,
            "clientAuthenticatorType": "client-secret",
            "redirectUris": [
                "/realms/PHT-Station/account/*"
            ],
            "webOrigins": [],
            "notBefore": 0,
            "bearerOnly": false,
            "consentRequired": false,
            "standardFlowEnabled": true,
            "implicitFlowEnabled": false,
            "directAccessGrantsEnabled": false,
            "serviceAccountsEnabled": false,
            "publicClient": true,
            "frontchannelLogout": false,
            "protocol": "openid-connect",
            "attributes": {
                "post.logout.redirect.uris": "+"
            },
            "authenticationFlowBindingOverrides": {},
            "fullScopeAllowed": false,
            "nodeReRegistrationTimeout": 0,
            "defaultClientScopes": [
                "web-origins",
                "acr",
                "profile",
                "roles",
                "email"
            ],
            "optionalClientScopes": [
                "address",
                "phone",
                "offline_access",
                "microprofile-jwt"
            ]
        },
        {
            "id": "47a2cd81-a165-493b-bcda-96325ba29753",
            "clientId": "account-console",
            "name": "${client_account-console}",
            "rootUrl": "${authBaseUrl}",
            "baseUrl": "/realms/PHT-Station/account/",
            "surrogateAuthRequired": false,
            "enabled": true,
            "alwaysDisplayInConsole": false,
            "clientAuthenticatorType": "client-secret",
            "redirectUris": [
                "/realms/PHT-Station/account/*"
            ],
            "webOrigins": [],
            "notBefore": 0,
            "bearerOnly": false,
            "consentRequired": false,
            "standardFlowEnabled": true,
            "implicitFlowEnabled": false,
            "directAccessGrantsEnabled": false,
            "serviceAccountsEnabled": false,
            "publicClient": true,
            "frontchannelLogout": false,
            "protocol": "openid-connect",
            "attributes": {
                "post.logout.redirect.uris": "+",
                "pkce.code.challenge.method": "S256"
            },
            "authenticationFlowBindingOverrides": {},
            "fullScopeAllowed": false,
            "nodeReRegistrationTimeout": 0,
            "protocolMappers": [
                {
                    "id": "873e4e3c-4de8-4f4a-bd93-5217c425e702",
                    "name": "audience resolve",
                    "protocol": "openid-connect",
                    "protocolMapper": "oidc-audience-resolve-mapper",
                    "consentRequired": false,
                    "config": {}
                }
            ],
            "defaultClientScopes": [
                "web-origins",
                "acr",
                "profile",
                "roles",
                "email"
            ],
            "optionalClientScopes": [
                "address",
                "phone",
                "offline_access",
                "microprofile-jwt"
            ]
        },
        {
            "id": "1d7bc904-9e2c-49b1-8425-fde90afdff92",
            "clientId": "admin-cli",
            "name": "${client_admin-cli}",
            "surrogateAuthRequired": false,
            "enabled": true,
            "alwaysDisplayInConsole": false,
            "clientAuthenticatorType": "client-secret",
            "redirectUris": [],
            "webOrigins": [],
            "notBefore": 0,
            "bearerOnly": false,
            "consentRequired": false,
            "standardFlowEnabled": false,
            "implicitFlowEnabled": false,
            "directAccessGrantsEnabled": true,
            "serviceAccountsEnabled": false,
            "publicClient": true,
            "frontchannelLogout": false,
            "protocol": "openid-connect",
            "attributes": {
                "post.logout.redirect.uris": "+"
            },
            "authenticationFlowBindingOverrides": {},
            "fullScopeAllowed": false,
            "nodeReRegistrationTimeout": 0,
            "defaultClientScopes": [
                "web-origins",
                "acr",
                "profile",
                "roles",
                "email"
            ],
            "optionalClientScopes": [
                "address",
                "phone",
                "offline_access",
                "microprofile-jwt"
            ]
        },
        {
            "id": "3d70d935-7005-411b-96e4-2069bafb4798",
            "clientId": "broker",
            "name": "${client_broker}",
            "surrogateAuthRequired": false,
            "enabled": true,
            "alwaysDisplayInConsole": false,
            "clientAuthenticatorType": "client-secret",
            "redirectUris": [],
            "webOrigins": [],
            "notBefore": 0,
            "bearerOnly": true,
            "consentRequired": false,
            "standardFlowEnabled": true,
            "implicitFlowEnabled": false,
            "directAccessGrantsEnabled": false,
            "serviceAccountsEnabled": false,
            "publicClient": false,
            "frontchannelLogout": false,
            "protocol": "openid-connect",
            "attributes": {
                "post.logout.redirect.uris": "+"
            },
            "authenticationFlowBindingOverrides": {},
            "fullScopeAllowed": false,
            "nodeReRegistrationTimeout": 0,
            "defaultClientScopes": [
                "web-origins",
                "acr",
                "profile",
                "roles",
                "email"
            ],
            "optionalClientScopes": [
                "address",
                "phone",
                "offline_access",
                "microprofile-jwt"
            ]
        },
        {
            "id": "42a7a76f-c7d6-41bb-814e-a65bfb67c6ab",
            "clientId": "pht-web",
            "name": "PHT Station Web Container",
            "description": "Client for PHT Station User Management",
            "rootUrl": "",
            "adminUrl": "",
            "baseUrl": "",
            "surrogateAuthRequired": false,
            "enabled": true,
            "alwaysDisplayInConsole": false,
            "clientAuthenticatorType": "client-secret",
            "redirectUris": [
                "${KC_REDIRECT_URI}"
            ],
            "webOrigins": [
                "+"
            ],
            "notBefore": 0,
            "bearerOnly": false,
            "consentRequired": false,
            "standardFlowEnabled": true,
            "implicitFlowEnabled": true,
            "directAccessGrantsEnabled": true,
            "serviceAccountsEnabled": false,
            "publicClient": true,
            "frontchannelLogout": true,
            "protocol": "openid-connect",
            "attributes": {
                "client.secret.creation.time": "1681997728",
                "login_theme": "keycloak",
                "post.logout.redirect.uris": "+",
                "oauth2.device.authorization.grant.enabled": "false",
                "backchannel.logout.revoke.offline.tokens": "false",
                "use.refresh.tokens": "true",
                "oidc.ciba.grant.enabled": "false",
                "backchannel.logout.session.required": "true",
                "client_credentials.use_refresh_token": "false",
                "tls.client.certificate.bound.access.tokens": "false",
                "require.pushed.authorization.requests": "false",
                "acr.loa.map": "{}",
                "display.on.consent.screen": "false",
                "token.response.type.bearer.lower-case": "false"
            },
            "authenticationFlowBindingOverrides": {},
            "fullScopeAllowed": true,
            "nodeReRegistrationTimeout": -1,
            "protocolMappers": [
                {
                    "id": "9401098c-a24e-455e-ab8b-0ea1247e9e5c",
                    "name": "Client ID",
                    "protocol": "openid-connect",
                    "protocolMapper": "oidc-usersessionmodel-note-mapper",
                    "consentRequired": false,
                    "config": {
                        "user.session.note": "client_id",
                        "userinfo.token.claim": "true",
                        "id.token.claim": "true",
                        "access.token.claim": "true",
                        "claim.name": "client_id",
                        "jsonType.label": "String"
                    }
                },
                {
                    "id": "51466637-c404-4a82-9a7f-f99eafd38eb5",
                    "name": "Client Host",
                    "protocol": "openid-connect",
                    "protocolMapper": "oidc-usersessionmodel-note-mapper",
                    "consentRequired": false,
                    "config": {
                        "user.session.note": "clientHost",
                        "userinfo.token.claim": "true",
                        "id.token.claim": "true",
                        "access.token.claim": "true",
                        "claim.name": "clientHost",
                        "jsonType.label": "String"
                    }
                },
                {
                    "id": "db072506-8e8d-4b57-892e-da7eda806e4e",
                    "name": "Client IP Address",
                    "protocol": "openid-connect",
                    "protocolMapper": "oidc-usersessionmodel-note-mapper",
                    "consentRequired": false,
                    "config": {
                        "user.session.note": "clientAddress",
                        "userinfo.token.claim": "true",
                        "id.token.claim": "true",
                        "access.token.claim": "true",
                        "claim.name": "clientAddress",
                        "jsonType.label": "String"
                    }
                }
            ],
            "defaultClientScopes": [
                "web-origins",
                "acr",
                "profile",
                "roles",
                "email"
            ],
            "optionalClientScopes": [
                "address",
                "phone",
                "offline_access",
                "microprofile-jwt"
            ]
        },
        {
            "id": "ba5e787b-7686-41c0-b25d-7699cab7a9fb",
            "clientId": "pht-web-backend",
            "name": "PHT Station Software Backend",
            "description": "",
            "rootUrl": "",
            "adminUrl": "",
            "baseUrl": "",
            "surrogateAuthRequired": false,
            "enabled": true,
            "alwaysDisplayInConsole": false,
            "clientAuthenticatorType": "client-secret",
            "redirectUris": [
                ""
            ],
            "webOrigins": [
                ""
            ],
            "notBefore": 0,
            "bearerOnly": false,
            "consentRequired": false,
            "standardFlowEnabled": true,
            "implicitFlowEnabled": true,
            "directAccessGrantsEnabled": false,
            "serviceAccountsEnabled": false,
            "publicClient": true,
            "frontchannelLogout": false,
            "protocol": "openid-connect",
            "attributes": {
                "oidc.ciba.grant.enabled": "false",
                "client.secret.creation.time": "1682258859",
                "backchannel.logout.session.required": "true",
                "oauth2.device.authorization.grant.enabled": "false",
                "display.on.consent.screen": "false",
                "backchannel.logout.revoke.offline.tokens": "false"
            },
            "authenticationFlowBindingOverrides": {},
            "fullScopeAllowed": true,
            "nodeReRegistrationTimeout": -1,
            "protocolMappers": [
                {
                    "id": "65940617-79a5-4283-819a-82b2b342a15b",
                    "name": "Client ID",
                    "protocol": "openid-connect",
                    "protocolMapper": "oidc-usersessionmodel-note-mapper",
                    "consentRequired": false,
                    "config": {
                        "user.session.note": "client_id",
                        "userinfo.token.claim": "true",
                        "id.token.claim": "true",
                        "access.token.claim": "true",
                        "claim.name": "client_id",
                        "jsonType.label": "String"
                    }
                },
                {
                    "id": "01ab9f83-6443-4a3f-a3d2-95aa19147d46",
                    "name": "Client IP Address",
                    "protocol": "openid-connect",
                    "protocolMapper": "oidc-usersessionmodel-note-mapper",
                    "consentRequired": false,
                    "config": {
                        "user.session.note": "clientAddress",
                        "userinfo.token.claim": "true",
                        "id.token.claim": "true",
                        "access.token.claim": "true",
                        "claim.name": "clientAddress",
                        "jsonType.label": "String"
                    }
                },
                {
                    "id": "e5bf7f12-222a-4fa8-a829-3ff15edacbfe",
                    "name": "Client Host",
                    "protocol": "openid-connect",
                    "protocolMapper": "oidc-usersessionmodel-note-mapper",
                    "consentRequired": false,
                    "config": {
                        "user.session.note": "clientHost",
                        "userinfo.token.claim": "true",
                        "id.token.claim": "true",
                        "access.token.claim": "true",
                        "claim.name": "clientHost",
                        "jsonType.label": "String"
                    }
                }
            ],
            "defaultClientScopes": [
                "web-origins",
                "acr",
                "profile",
                "roles",
                "email"
            ],
            "optionalClientScopes": [
                "address",
                "phone",
                "offline_access",
                "microprofile-jwt"
            ]
        },
        {
            "id": "32a07ceb-7010-4b90-9f39-1172e555c699",
            "clientId": "realm-management",
            "name": "${client_realm-management}",
            "surrogateAuthRequired": false,
            "enabled": true,
            "alwaysDisplayInConsole": false,
            "clientAuthenticatorType": "client-secret",
            "redirectUris": [],
            "webOrigins": [],
            "notBefore": 0,
            "bearerOnly": true,
            "consentRequired": false,
            "standardFlowEnabled": true,
            "implicitFlowEnabled": false,
            "directAccessGrantsEnabled": false,
            "serviceAccountsEnabled": false,
            "publicClient": false,
            "frontchannelLogout": false,
            "protocol": "openid-connect",
            "attributes": {
                "post.logout.redirect.uris": "+"
            },
            "authenticationFlowBindingOverrides": {},
            "fullScopeAllowed": false,
            "nodeReRegistrationTimeout": 0,
            "defaultClientScopes": [
                "web-origins",
                "acr",
                "profile",
                "roles",
                "email"
            ],
            "optionalClientScopes": [
                "address",
                "phone",
                "offline_access",
                "microprofile-jwt"
            ]
        },
        {
            "id": "b53f4cdf-313a-4c33-a4d8-ed2f48ca8007",
            "clientId": "security-admin-console",
            "name": "${client_security-admin-console}",
            "rootUrl": "${authAdminUrl}",
            "baseUrl": "/admin/PHT-Station/console/",
            "surrogateAuthRequired": false,
            "enabled": true,
            "alwaysDisplayInConsole": false,
            "clientAuthenticatorType": "client-secret",
            "redirectUris": [
                "/admin/PHT-Station/console/*"
            ],
            "webOrigins": [
                "+"
            ],
            "notBefore": 0,
            "bearerOnly": false,
            "consentRequired": false,
            "standardFlowEnabled": true,
            "implicitFlowEnabled": false,
            "directAccessGrantsEnabled": false,
            "serviceAccountsEnabled": false,
            "publicClient": true,
            "frontchannelLogout": false,
            "protocol": "openid-connect",
            "attributes": {
                "post.logout.redirect.uris": "+",
                "pkce.code.challenge.method": "S256"
            },
            "authenticationFlowBindingOverrides": {},
            "fullScopeAllowed": false,
            "nodeReRegistrationTimeout": 0,
            "protocolMappers": [
                {
                    "id": "174d8ec2-9515-4a80-8e45-a9f1d1c00468",
                    "name": "locale",
                    "protocol": "openid-connect",
                    "protocolMapper": "oidc-usermodel-attribute-mapper",
                    "consentRequired": false,
                    "config": {
                        "userinfo.token.claim": "true",
                        "user.attribute": "locale",
                        "id.token.claim": "true",
                        "access.token.claim": "true",
                        "claim.name": "locale",
                        "jsonType.label": "String"
                    }
                }
            ],
            "defaultClientScopes": [
                "web-origins",
                "acr",
                "profile",
                "roles",
                "email"
            ],
            "optionalClientScopes": [
                "address",
                "phone",
                "offline_access",
                "microprofile-jwt"
            ]
        }
    ],
    "clientScopes": [
        {
            "id": "5b75b6cc-8263-48fd-a33c-0e500d177659",
            "name": "role_list",
            "description": "SAML role list",
            "protocol": "saml",
            "attributes": {
                "consent.screen.text": "${samlRoleListScopeConsentText}",
                "display.on.consent.screen": "true"
            },
            "protocolMappers": [
                {
                    "id": "56a0ce7a-0efc-4f8a-a23b-c2e862440e15",
                    "name": "role list",
                    "protocol": "saml",
                    "protocolMapper": "saml-role-list-mapper",
                    "consentRequired": false,
                    "config": {
                        "single": "false",
                        "attribute.nameformat": "Basic",
                        "attribute.name": "Role"
                    }
                }
            ]
        },
        {
            "id": "95d439b4-43a7-4921-94f6-a9924ab3dcd8",
            "name": "web-origins",
            "description": "OpenID Connect scope for add allowed web origins to the access token",
            "protocol": "openid-connect",
            "attributes": {
                "include.in.token.scope": "false",
                "display.on.consent.screen": "false",
                "consent.screen.text": ""
            },
            "protocolMappers": [
                {
                    "id": "ae9f39db-c728-4182-be28-49aaf31ff08e",
                    "name": "allowed web origins",
                    "protocol": "openid-connect",
                    "protocolMapper": "oidc-allowed-origins-mapper",
                    "consentRequired": false,
                    "config": {}
                }
            ]
        },
        {
            "id": "501bb595-f854-40aa-9272-c812a8d555b5",
            "name": "acr",
            "description": "OpenID Connect scope for add acr (authentication context class reference) to the token",
            "protocol": "openid-connect",
            "attributes": {
                "include.in.token.scope": "false",
                "display.on.consent.screen": "false"
            },
            "protocolMappers": [
                {
                    "id": "916ce286-ec3c-47e6-bdc3-5e043ba2107e",
                    "name": "acr loa level",
                    "protocol": "openid-connect",
                    "protocolMapper": "oidc-acr-mapper",
                    "consentRequired": false,
                    "config": {
                        "id.token.claim": "true",
                        "access.token.claim": "true",
                        "userinfo.token.claim": "true"
                    }
                }
            ]
        },
        {
            "id": "fb23a3fa-f2b9-4135-9907-40e5e6746786",
            "name": "profile",
            "description": "OpenID Connect built-in scope: profile",
            "protocol": "openid-connect",
            "attributes": {
                "include.in.token.scope": "true",
                "display.on.consent.screen": "true",
                "consent.screen.text": "${profileScopeConsentText}"
            },
            "protocolMappers": [
                {
                    "id": "0e5342b1-b6a7-4abb-9284-f2dfe36d4ea6",
                    "name": "picture",
                    "protocol": "openid-connect",
                    "protocolMapper": "oidc-usermodel-attribute-mapper",
                    "consentRequired": false,
                    "config": {
                        "userinfo.token.claim": "true",
                        "user.attribute": "picture",
                        "id.token.claim": "true",
                        "access.token.claim": "true",
                        "claim.name": "picture",
                        "jsonType.label": "String"
                    }
                },
                {
                    "id": "96de1936-0a21-483c-9d6e-e4821ce78b5e",
                    "name": "username",
                    "protocol": "openid-connect",
                    "protocolMapper": "oidc-usermodel-property-mapper",
                    "consentRequired": false,
                    "config": {
                        "userinfo.token.claim": "true",
                        "user.attribute": "username",
                        "id.token.claim": "true",
                        "access.token.claim": "true",
                        "claim.name": "preferred_username",
                        "jsonType.label": "String"
                    }
                },
                {
                    "id": "fc157017-cb31-4171-b8da-7a5584c8e0b5",
                    "name": "updated at",
                    "protocol": "openid-connect",
                    "protocolMapper": "oidc-usermodel-attribute-mapper",
                    "consentRequired": false,
                    "config": {
                        "userinfo.token.claim": "true",
                        "user.attribute": "updatedAt",
                        "id.token.claim": "true",
                        "access.token.claim": "true",
                        "claim.name": "updated_at",
                        "jsonType.label": "long"
                    }
                },
                {
                    "id": "f75d405a-9e34-4964-b1d5-1b92093da287",
                    "name": "given name",
                    "protocol": "openid-connect",
                    "protocolMapper": "oidc-usermodel-property-mapper",
                    "consentRequired": false,
                    "config": {
                        "userinfo.token.claim": "true",
                        "user.attribute": "firstName",
                        "id.token.claim": "true",
                        "access.token.claim": "true",
                        "claim.name": "given_name",
                        "jsonType.label": "String"
                    }
                },
                {
                    "id": "f8338390-0297-46a4-b0b0-17adc5f00154",
                    "name": "full name",
                    "protocol": "openid-connect",
                    "protocolMapper": "oidc-full-name-mapper",
                    "consentRequired": false,
                    "config": {
                        "id.token.claim": "true",
                        "access.token.claim": "true",
                        "userinfo.token.claim": "true"
                    }
                },
                {
                    "id": "b6efed7a-8582-48bc-ba7c-f4f56d6cd797",
                    "name": "family name",
                    "protocol": "openid-connect",
                    "protocolMapper": "oidc-usermodel-property-mapper",
                    "consentRequired": false,
                    "config": {
                        "userinfo.token.claim": "true",
                        "user.attribute": "lastName",
                        "id.token.claim": "true",
                        "access.token.claim": "true",
                        "claim.name": "family_name",
                        "jsonType.label": "String"
                    }
                },
                {
                    "id": "8bff40a8-3df1-4887-bb9f-150f014b07a1",
                    "name": "middle name",
                    "protocol": "openid-connect",
                    "protocolMapper": "oidc-usermodel-attribute-mapper",
                    "consentRequired": false,
                    "config": {
                        "userinfo.token.claim": "true",
                        "user.attribute": "middleName",
                        "id.token.claim": "true",
                        "access.token.claim": "true",
                        "claim.name": "middle_name",
                        "jsonType.label": "String"
                    }
                },
                {
                    "id": "0dc1c7c4-f2ca-494f-950f-d3442ba33230",
                    "name": "nickname",
                    "protocol": "openid-connect",
                    "protocolMapper": "oidc-usermodel-attribute-mapper",
                    "consentRequired": false,
                    "config": {
                        "userinfo.token.claim": "true",
                        "user.attribute": "nickname",
                        "id.token.claim": "true",
                        "access.token.claim": "true",
                        "claim.name": "nickname",
                        "jsonType.label": "String"
                    }
                },
                {
                    "id": "55f4db06-e27d-4d89-a275-1c27953ec7ff",
                    "name": "website",
                    "protocol": "openid-connect",
                    "protocolMapper": "oidc-usermodel-attribute-mapper",
                    "consentRequired": false,
                    "config": {
                        "userinfo.token.claim": "true",
                        "user.attribute": "website",
                        "id.token.claim": "true",
                        "access.token.claim": "true",
                        "claim.name": "website",
                        "jsonType.label": "String"
                    }
                },
                {
                    "id": "87b1cf86-dc17-466b-b5f6-f9ab2f13bc38",
                    "name": "zoneinfo",
                    "protocol": "openid-connect",
                    "protocolMapper": "oidc-usermodel-attribute-mapper",
                    "consentRequired": false,
                    "config": {
                        "userinfo.token.claim": "true",
                        "user.attribute": "zoneinfo",
                        "id.token.claim": "true",
                        "access.token.claim": "true",
                        "claim.name": "zoneinfo",
                        "jsonType.label": "String"
                    }
                },
                {
                    "id": "a90780eb-5762-4454-b937-c6c91e596198",
                    "name": "birthdate",
                    "protocol": "openid-connect",
                    "protocolMapper": "oidc-usermodel-attribute-mapper",
                    "consentRequired": false,
                    "config": {
                        "userinfo.token.claim": "true",
                        "user.attribute": "birthdate",
                        "id.token.claim": "true",
                        "access.token.claim": "true",
                        "claim.name": "birthdate",
                        "jsonType.label": "String"
                    }
                },
                {
                    "id": "7822ce73-3e3e-4252-a5d3-53b5be19d820",
                    "name": "gender",
                    "protocol": "openid-connect",
                    "protocolMapper": "oidc-usermodel-attribute-mapper",
                    "consentRequired": false,
                    "config": {
                        "userinfo.token.claim": "true",
                        "user.attribute": "gender",
                        "id.token.claim": "true",
                        "access.token.claim": "true",
                        "claim.name": "gender",
                        "jsonType.label": "String"
                    }
                },
                {
                    "id": "8c5dc43d-dc55-450a-be13-ab4dba3ac8d5",
                    "name": "locale",
                    "protocol": "openid-connect",
                    "protocolMapper": "oidc-usermodel-attribute-mapper",
                    "consentRequired": false,
                    "config": {
                        "userinfo.token.claim": "true",
                        "user.attribute": "locale",
                        "id.token.claim": "true",
                        "access.token.claim": "true",
                        "claim.name": "locale",
                        "jsonType.label": "String"
                    }
                },
                {
                    "id": "a6df8d58-41d0-48b8-b1a7-9d75754aca8a",
                    "name": "profile",
                    "protocol": "openid-connect",
                    "protocolMapper": "oidc-usermodel-attribute-mapper",
                    "consentRequired": false,
                    "config": {
                        "userinfo.token.claim": "true",
                        "user.attribute": "profile",
                        "id.token.claim": "true",
                        "access.token.claim": "true",
                        "claim.name": "profile",
                        "jsonType.label": "String"
                    }
                }
            ]
        },
        {
            "id": "9535992c-53a4-463c-b9d5-ec36fdb839de",
            "name": "roles",
            "description": "OpenID Connect scope for add user roles to the access token",
            "protocol": "openid-connect",
            "attributes": {
                "include.in.token.scope": "false",
                "display.on.consent.screen": "true",
                "consent.screen.text": "${rolesScopeConsentText}"
            },
            "protocolMappers": [
                {
                    "id": "3524d6ad-2df1-4b36-9ad5-1901c9a88b7f",
                    "name": "client roles",
                    "protocol": "openid-connect",
                    "protocolMapper": "oidc-usermodel-client-role-mapper",
                    "consentRequired": false,
                    "config": {
                        "user.attribute": "foo",
                        "access.token.claim": "true",
                        "claim.name": "resource_access.${client_id}.roles",
                        "jsonType.label": "String",
                        "multivalued": "true"
                    }
                },
                {
                    "id": "9966efb2-d73e-43c2-ad95-3e826061b769",
                    "name": "realm roles",
                    "protocol": "openid-connect",
                    "protocolMapper": "oidc-usermodel-realm-role-mapper",
                    "consentRequired": false,
                    "config": {
                        "user.attribute": "foo",
                        "access.token.claim": "true",
                        "claim.name": "realm_access.roles",
                        "jsonType.label": "String",
                        "multivalued": "true"
                    }
                },
                {
                    "id": "405c9498-11b8-480b-9f4d-93f3601a3da4",
                    "name": "audience resolve",
                    "protocol": "openid-connect",
                    "protocolMapper": "oidc-audience-resolve-mapper",
                    "consentRequired": false,
                    "config": {}
                }
            ]
        },
        {
            "id": "987f0b70-5044-44a5-a39b-29792c76feb4",
            "name": "phone",
            "description": "OpenID Connect built-in scope: phone",
            "protocol": "openid-connect",
            "attributes": {
                "include.in.token.scope": "true",
                "display.on.consent.screen": "true",
                "consent.screen.text": "${phoneScopeConsentText}"
            },
            "protocolMappers": [
                {
                    "id": "6501bab9-8fc2-4a03-86bc-6f9ccdd22eb8",
                    "name": "phone number verified",
                    "protocol": "openid-connect",
                    "protocolMapper": "oidc-usermodel-attribute-mapper",
                    "consentRequired": false,
                    "config": {
                        "userinfo.token.claim": "true",
                        "user.attribute": "phoneNumberVerified",
                        "id.token.claim": "true",
                        "access.token.claim": "true",
                        "claim.name": "phone_number_verified",
                        "jsonType.label": "boolean"
                    }
                },
                {
                    "id": "1d0eb271-2c7b-4b97-863c-06b6dace72e3",
                    "name": "phone number",
                    "protocol": "openid-connect",
                    "protocolMapper": "oidc-usermodel-attribute-mapper",
                    "consentRequired": false,
                    "config": {
                        "userinfo.token.claim": "true",
                        "user.attribute": "phoneNumber",
                        "id.token.claim": "true",
                        "access.token.claim": "true",
                        "claim.name": "phone_number",
                        "jsonType.label": "String"
                    }
                }
            ]
        },
        {
            "id": "ca9d2d54-c38d-42df-856f-4e3ecd9bb694",
            "name": "email",
            "description": "OpenID Connect built-in scope: email",
            "protocol": "openid-connect",
            "attributes": {
                "include.in.token.scope": "true",
                "display.on.consent.screen": "true",
                "consent.screen.text": "${emailScopeConsentText}"
            },
            "protocolMappers": [
                {
                    "id": "6f36a0bb-938f-46b3-b5a4-6e6ae59a74fb",
                    "name": "email verified",
                    "protocol": "openid-connect",
                    "protocolMapper": "oidc-usermodel-property-mapper",
                    "consentRequired": false,
                    "config": {
                        "userinfo.token.claim": "true",
                        "user.attribute": "emailVerified",
                        "id.token.claim": "true",
                        "access.token.claim": "true",
                        "claim.name": "email_verified",
                        "jsonType.label": "boolean"
                    }
                },
                {
                    "id": "0a091bac-d034-470a-9012-23922226db54",
                    "name": "email",
                    "protocol": "openid-connect",
                    "protocolMapper": "oidc-usermodel-property-mapper",
                    "consentRequired": false,
                    "config": {
                        "userinfo.token.claim": "true",
                        "user.attribute": "email",
                        "id.token.claim": "true",
                        "access.token.claim": "true",
                        "claim.name": "email",
                        "jsonType.label": "String"
                    }
                }
            ]
        },
        {
            "id": "75f5cbeb-abfb-4a3d-baeb-5093885448b0",
            "name": "microprofile-jwt",
            "description": "Microprofile - JWT built-in scope",
            "protocol": "openid-connect",
            "attributes": {
                "include.in.token.scope": "true",
                "display.on.consent.screen": "false"
            },
            "protocolMappers": [
                {
                    "id": "5c383a7d-ec18-4865-8f8d-cb39a3fed470",
                    "name": "upn",
                    "protocol": "openid-connect",
                    "protocolMapper": "oidc-usermodel-property-mapper",
                    "consentRequired": false,
                    "config": {
                        "userinfo.token.claim": "true",
                        "user.attribute": "username",
                        "id.token.claim": "true",
                        "access.token.claim": "true",
                        "claim.name": "upn",
                        "jsonType.label": "String"
                    }
                },
                {
                    "id": "3b18aaa6-7911-469b-bd54-198e87a75f72",
                    "name": "groups",
                    "protocol": "openid-connect",
                    "protocolMapper": "oidc-usermodel-realm-role-mapper",
                    "consentRequired": false,
                    "config": {
                        "multivalued": "true",
                        "userinfo.token.claim": "true",
                        "user.attribute": "foo",
                        "id.token.claim": "true",
                        "access.token.claim": "true",
                        "claim.name": "groups",
                        "jsonType.label": "String"
                    }
                }
            ]
        },
        {
            "id": "319dcea7-b136-4b49-9075-100eecf554cc",
            "name": "offline_access",
            "description": "OpenID Connect built-in scope: offline_access",
            "protocol": "openid-connect",
            "attributes": {
                "consent.screen.text": "${offlineAccessScopeConsentText}",
                "display.on.consent.screen": "true"
            }
        },
        {
            "id": "c41da5d1-3895-4aaf-a916-37e65879fecf",
            "name": "address",
            "description": "OpenID Connect built-in scope: address",
            "protocol": "openid-connect",
            "attributes": {
                "include.in.token.scope": "true",
                "display.on.consent.screen": "true",
                "consent.screen.text": "${addressScopeConsentText}"
            },
            "protocolMappers": [
                {
                    "id": "35b29aa4-ed6b-4318-8873-a41f3dc47b7d",
                    "name": "address",
                    "protocol": "openid-connect",
                    "protocolMapper": "oidc-address-mapper",
                    "consentRequired": false,
                    "config": {
                        "user.attribute.formatted": "formatted",
                        "user.attribute.country": "country",
                        "user.attribute.postal_code": "postal_code",
                        "userinfo.token.claim": "true",
                        "user.attribute.street": "street",
                        "id.token.claim": "true",
                        "user.attribute.region": "region",
                        "access.token.claim": "true",
                        "user.attribute.locality": "locality"
                    }
                }
            ]
        }
    ],
    "defaultDefaultClientScopes": [
        "role_list",
        "profile",
        "email",
        "roles",
        "web-origins",
        "acr"
    ],
    "defaultOptionalClientScopes": [
        "offline_access",
        "address",
        "phone",
        "microprofile-jwt"
    ],
    "browserSecurityHeaders": {
        "contentSecurityPolicyReportOnly": "",
        "xContentTypeOptions": "nosniff",
        "referrerPolicy": "no-referrer",
        "xRobotsTag": "none",
        "xFrameOptions": "SAMEORIGIN",
        "contentSecurityPolicy": "frame-src 'self'; frame-ancestors 'self'; object-src 'none';",
        "xXSSProtection": "1; mode=block",
        "strictTransportSecurity": "max-age=31536000; includeSubDomains"
    },
    "smtpServer": {},
    "loginTheme": "keycloak",
    "accountTheme": "keycloak.v2",
    "adminTheme": "keycloak.v2",
    "emailTheme": "keycloak",
    "eventsEnabled": false,
    "eventsListeners": [
        "jboss-logging"
    ],
    "enabledEventTypes": [],
    "adminEventsEnabled": false,
    "adminEventsDetailsEnabled": false,
    "identityProviders": [],
    "identityProviderMappers": [],
    "components": {
        "org.keycloak.services.clientregistration.policy.ClientRegistrationPolicy": [
            {
                "id": "a427faca-1f98-4654-9cc9-e4c896b40064",
                "name": "Trusted Hosts",
                "providerId": "trusted-hosts",
                "subType": "anonymous",
                "subComponents": {},
                "config": {
                    "host-sending-registration-request-must-match": [
                        "true"
                    ],
                    "client-uris-must-match": [
                        "true"
                    ]
                }
            },
            {
                "id": "2318ff14-e0a6-41c7-9377-967e98bccfd9",
                "name": "Allowed Client Scopes",
                "providerId": "allowed-client-templates",
                "subType": "anonymous",
                "subComponents": {},
                "config": {
                    "allow-default-scopes": [
                        "true"
                    ]
                }
            },
            {
                "id": "ccfb3346-6e3e-4621-aa02-0e9644a85546",
                "name": "Allowed Protocol Mapper Types",
                "providerId": "allowed-protocol-mappers",
                "subType": "anonymous",
                "subComponents": {},
                "config": {
                    "allowed-protocol-mapper-types": [
                        "oidc-usermodel-property-mapper",
                        "oidc-full-name-mapper",
                        "oidc-usermodel-attribute-mapper",
                        "saml-role-list-mapper",
                        "saml-user-attribute-mapper",
                        "saml-user-property-mapper",
                        "oidc-sha256-pairwise-sub-mapper",
                        "oidc-address-mapper"
                    ]
                }
            },
            {
                "id": "b47d5517-53a9-4f9c-afb2-c9869ee9d9dc",
                "name": "Full Scope Disabled",
                "providerId": "scope",
                "subType": "anonymous",
                "subComponents": {},
                "config": {}
            },
            {
                "id": "0ec3c28c-a074-4068-a23c-de14f0c9aaea",
                "name": "Allowed Protocol Mapper Types",
                "providerId": "allowed-protocol-mappers",
                "subType": "authenticated",
                "subComponents": {},
                "config": {
                    "allowed-protocol-mapper-types": [
                        "saml-role-list-mapper",
                        "saml-user-property-mapper",
                        "oidc-usermodel-attribute-mapper",
                        "oidc-address-mapper",
                        "oidc-usermodel-property-mapper",
                        "oidc-full-name-mapper",
                        "oidc-sha256-pairwise-sub-mapper",
                        "saml-user-attribute-mapper"
                    ]
                }
            },
            {
                "id": "ee726a8f-0f20-4a28-95ca-c63a8685ac3e",
                "name": "Consent Required",
                "providerId": "consent-required",
                "subType": "anonymous",
                "subComponents": {},
                "config": {}
            },
            {
                "id": "598cbeee-355e-4962-9ad4-fa7e8a20c605",
                "name": "Allowed Client Scopes",
                "providerId": "allowed-client-templates",
                "subType": "authenticated",
                "subComponents": {},
                "config": {
                    "allow-default-scopes": [
                        "true"
                    ]
                }
            },
            {
                "id": "c68cbe87-4e05-442a-b9d4-bd66835bb186",
                "name": "Max Clients Limit",
                "providerId": "max-clients",
                "subType": "anonymous",
                "subComponents": {},
                "config": {
                    "max-clients": [
                        "200"
                    ]
                }
            }
        ],
        "org.keycloak.userprofile.UserProfileProvider": [
            {
                "id": "06005af8-149f-4ee1-a58e-0c06a6861c25",
                "providerId": "declarative-user-profile",
                "subComponents": {},
                "config": {}
            }
        ],
        "org.keycloak.keys.KeyProvider": [
            {
                "id": "45413e31-6361-47d2-a5ad-149c2640e8f1",
                "name": "rsa-generated",
                "providerId": "rsa-generated",
                "subComponents": {},
                "config": {
                    "priority": [
                        "100"
                    ]
                }
            },
            {
                "id": "ca2737d3-503e-4cd8-8e55-6f177640fcd3",
                "name": "rsa-enc-generated",
                "providerId": "rsa-enc-generated",
                "subComponents": {},
                "config": {
                    "priority": [
                        "100"
                    ],
                    "algorithm": [
                        "RSA-OAEP"
                    ]
                }
            },
            {
                "id": "08906766-7774-4db1-b5b8-654b8801cae1",
                "name": "hmac-generated",
                "providerId": "hmac-generated",
                "subComponents": {},
                "config": {
                    "priority": [
                        "100"
                    ],
                    "algorithm": [
                        "HS256"
                    ]
                }
            },
            {
                "id": "9ba66b8e-3bcd-41bc-b73d-8f087e638587",
                "name": "aes-generated",
                "providerId": "aes-generated",
                "subComponents": {},
                "config": {
                    "priority": [
                        "100"
                    ]
                }
            }
        ]
    },
    "internationalizationEnabled": false,
    "supportedLocales": [],
    "authenticationFlows": [
        {
            "id": "ed33bf7b-af86-4748-b81a-c37e05f44927",
            "alias": "Account verification options",
            "description": "Method with which to verity the existing account",
            "providerId": "basic-flow",
            "topLevel": false,
            "builtIn": true,
            "authenticationExecutions": [
                {
                    "authenticator": "idp-email-verification",
                    "authenticatorFlow": false,
                    "requirement": "ALTERNATIVE",
                    "priority": 10,
                    "autheticatorFlow": false,
                    "userSetupAllowed": false
                },
                {
                    "authenticatorFlow": true,
                    "requirement": "ALTERNATIVE",
                    "priority": 20,
                    "autheticatorFlow": true,
                    "flowAlias": "Verify Existing Account by Re-authentication",
                    "userSetupAllowed": false
                }
            ]
        },
        {
            "id": "001ab61d-3d6c-4d1e-a580-d3aa0ca2a3ed",
            "alias": "Browser - Conditional OTP",
            "description": "Flow to determine if the OTP is required for the authentication",
            "providerId": "basic-flow",
            "topLevel": false,
            "builtIn": true,
            "authenticationExecutions": [
                {
                    "authenticator": "conditional-user-configured",
                    "authenticatorFlow": false,
                    "requirement": "REQUIRED",
                    "priority": 10,
                    "autheticatorFlow": false,
                    "userSetupAllowed": false
                },
                {
                    "authenticator": "auth-otp-form",
                    "authenticatorFlow": false,
                    "requirement": "REQUIRED",
                    "priority": 20,
                    "autheticatorFlow": false,
                    "userSetupAllowed": false
                }
            ]
        },
        {
            "id": "8c566847-575b-4fa8-a931-4abc64ee6569",
            "alias": "Direct Grant - Conditional OTP",
            "description": "Flow to determine if the OTP is required for the authentication",
            "providerId": "basic-flow",
            "topLevel": false,
            "builtIn": true,
            "authenticationExecutions": [
                {
                    "authenticator": "conditional-user-configured",
                    "authenticatorFlow": false,
                    "requirement": "REQUIRED",
                    "priority": 10,
                    "autheticatorFlow": false,
                    "userSetupAllowed": false
                },
                {
                    "authenticator": "direct-grant-validate-otp",
                    "authenticatorFlow": false,
                    "requirement": "REQUIRED",
                    "priority": 20,
                    "autheticatorFlow": false,
                    "userSetupAllowed": false
                }
            ]
        },
        {
            "id": "256f0068-bb83-43a7-937f-8112c3f68197",
            "alias": "First broker login - Conditional OTP",
            "description": "Flow to determine if the OTP is required for the authentication",
            "providerId": "basic-flow",
            "topLevel": false,
            "builtIn": true,
            "authenticationExecutions": [
                {
                    "authenticator": "conditional-user-configured",
                    "authenticatorFlow": false,
                    "requirement": "REQUIRED",
                    "priority": 10,
                    "autheticatorFlow": false,
                    "userSetupAllowed": false
                },
                {
                    "authenticator": "auth-otp-form",
                    "authenticatorFlow": false,
                    "requirement": "REQUIRED",
                    "priority": 20,
                    "autheticatorFlow": false,
                    "userSetupAllowed": false
                }
            ]
        },
        {
            "id": "9468f891-fded-4c51-a8c9-209f8008c900",
            "alias": "Handle Existing Account",
            "description": "Handle what to do if there is existing account with same email/username like authenticated identity provider",
            "providerId": "basic-flow",
            "topLevel": false,
            "builtIn": true,
            "authenticationExecutions": [
                {
                    "authenticator": "idp-confirm-link",
                    "authenticatorFlow": false,
                    "requirement": "REQUIRED",
                    "priority": 10,
                    "autheticatorFlow": false,
                    "userSetupAllowed": false
                },
                {
                    "authenticatorFlow": true,
                    "requirement": "REQUIRED",
                    "priority": 20,
                    "autheticatorFlow": true,
                    "flowAlias": "Account verification options",
                    "userSetupAllowed": false
                }
            ]
        },
        {
            "id": "bd06701d-09a9-4828-b429-0c5bc5ed56d8",
            "alias": "Reset - Conditional OTP",
            "description": "Flow to determine if the OTP should be reset or not. Set to REQUIRED to force.",
            "providerId": "basic-flow",
            "topLevel": false,
            "builtIn": true,
            "authenticationExecutions": [
                {
                    "authenticator": "conditional-user-configured",
                    "authenticatorFlow": false,
                    "requirement": "REQUIRED",
                    "priority": 10,
                    "autheticatorFlow": false,
                    "userSetupAllowed": false
                },
                {
                    "authenticator": "reset-otp",
                    "authenticatorFlow": false,
                    "requirement": "REQUIRED",
                    "priority": 20,
                    "autheticatorFlow": false,
                    "userSetupAllowed": false
                }
            ]
        },
        {
            "id": "34c123f4-9ad7-44d8-a787-597a0195c3f5",
            "alias": "User creation or linking",
            "description": "Flow for the existing/non-existing user alternatives",
            "providerId": "basic-flow",
            "topLevel": false,
            "builtIn": true,
            "authenticationExecutions": [
                {
                    "authenticatorConfig": "create unique user config",
                    "authenticator": "idp-create-user-if-unique",
                    "authenticatorFlow": false,
                    "requirement": "ALTERNATIVE",
                    "priority": 10,
                    "autheticatorFlow": false,
                    "userSetupAllowed": false
                },
                {
                    "authenticatorFlow": true,
                    "requirement": "ALTERNATIVE",
                    "priority": 20,
                    "autheticatorFlow": true,
                    "flowAlias": "Handle Existing Account",
                    "userSetupAllowed": false
                }
            ]
        },
        {
            "id": "983a842f-e788-4c9c-805b-d8c159606d21",
            "alias": "Verify Existing Account by Re-authentication",
            "description": "Reauthentication of existing account",
            "providerId": "basic-flow",
            "topLevel": false,
            "builtIn": true,
            "authenticationExecutions": [
                {
                    "authenticator": "idp-username-password-form",
                    "authenticatorFlow": false,
                    "requirement": "REQUIRED",
                    "priority": 10,
                    "autheticatorFlow": false,
                    "userSetupAllowed": false
                },
                {
                    "authenticatorFlow": true,
                    "requirement": "CONDITIONAL",
                    "priority": 20,
                    "autheticatorFlow": true,
                    "flowAlias": "First broker login - Conditional OTP",
                    "userSetupAllowed": false
                }
            ]
        },
        {
            "id": "7e96b132-9910-491b-969b-8c0741159fe1",
            "alias": "browser",
            "description": "browser based authentication",
            "providerId": "basic-flow",
            "topLevel": true,
            "builtIn": true,
            "authenticationExecutions": [
                {
                    "authenticator": "auth-cookie",
                    "authenticatorFlow": false,
                    "requirement": "ALTERNATIVE",
                    "priority": 10,
                    "autheticatorFlow": false,
                    "userSetupAllowed": false
                },
                {
                    "authenticator": "auth-spnego",
                    "authenticatorFlow": false,
                    "requirement": "DISABLED",
                    "priority": 20,
                    "autheticatorFlow": false,
                    "userSetupAllowed": false
                },
                {
                    "authenticator": "identity-provider-redirector",
                    "authenticatorFlow": false,
                    "requirement": "ALTERNATIVE",
                    "priority": 25,
                    "autheticatorFlow": false,
                    "userSetupAllowed": false
                },
                {
                    "authenticatorFlow": true,
                    "requirement": "ALTERNATIVE",
                    "priority": 30,
                    "autheticatorFlow": true,
                    "flowAlias": "forms",
                    "userSetupAllowed": false
                }
            ]
        },
        {
            "id": "d10a64a4-b31c-41e5-b4c1-ef72d66c8df5",
            "alias": "clients",
            "description": "Base authentication for clients",
            "providerId": "client-flow",
            "topLevel": true,
            "builtIn": true,
            "authenticationExecutions": [
                {
                    "authenticator": "client-secret",
                    "authenticatorFlow": false,
                    "requirement": "ALTERNATIVE",
                    "priority": 10,
                    "autheticatorFlow": false,
                    "userSetupAllowed": false
                },
                {
                    "authenticator": "client-jwt",
                    "authenticatorFlow": false,
                    "requirement": "ALTERNATIVE",
                    "priority": 20,
                    "autheticatorFlow": false,
                    "userSetupAllowed": false
                },
                {
                    "authenticator": "client-secret-jwt",
                    "authenticatorFlow": false,
                    "requirement": "ALTERNATIVE",
                    "priority": 30,
                    "autheticatorFlow": false,
                    "userSetupAllowed": false
                },
                {
                    "authenticator": "client-x509",
                    "authenticatorFlow": false,
                    "requirement": "ALTERNATIVE",
                    "priority": 40,
                    "autheticatorFlow": false,
                    "userSetupAllowed": false
                }
            ]
        },
        {
            "id": "ca26a801-2227-4c1e-912b-41aca8466ab3",
            "alias": "direct grant",
            "description": "OpenID Connect Resource Owner Grant",
            "providerId": "basic-flow",
            "topLevel": true,
            "builtIn": true,
            "authenticationExecutions": [
                {
                    "authenticator": "direct-grant-validate-username",
                    "authenticatorFlow": false,
                    "requirement": "REQUIRED",
                    "priority": 10,
                    "autheticatorFlow": false,
                    "userSetupAllowed": false
                },
                {
                    "authenticator": "direct-grant-validate-password",
                    "authenticatorFlow": false,
                    "requirement": "REQUIRED",
                    "priority": 20,
                    "autheticatorFlow": false,
                    "userSetupAllowed": false
                },
                {
                    "authenticatorFlow": true,
                    "requirement": "CONDITIONAL",
                    "priority": 30,
                    "autheticatorFlow": true,
                    "flowAlias": "Direct Grant - Conditional OTP",
                    "userSetupAllowed": false
                }
            ]
        },
        {
            "id": "4b034d87-c87e-4ec2-aa37-e82829b08383",
            "alias": "docker auth",
            "description": "Used by Docker clients to authenticate against the IDP",
            "providerId": "basic-flow",
            "topLevel": true,
            "builtIn": true,
            "authenticationExecutions": [
                {
                    "authenticator": "docker-http-basic-authenticator",
                    "authenticatorFlow": false,
                    "requirement": "REQUIRED",
                    "priority": 10,
                    "autheticatorFlow": false,
                    "userSetupAllowed": false
                }
            ]
        },
        {
            "id": "b3a426b4-7cb9-4516-8972-f594a4f15ee8",
            "alias": "first broker login",
            "description": "Actions taken after first broker login with identity provider account, which is not yet linked to any Keycloak account",
            "providerId": "basic-flow",
            "topLevel": true,
            "builtIn": true,
            "authenticationExecutions": [
                {
                    "authenticatorConfig": "review profile config",
                    "authenticator": "idp-review-profile",
                    "authenticatorFlow": false,
                    "requirement": "REQUIRED",
                    "priority": 10,
                    "autheticatorFlow": false,
                    "userSetupAllowed": false
                },
                {
                    "authenticatorFlow": true,
                    "requirement": "REQUIRED",
                    "priority": 20,
                    "autheticatorFlow": true,
                    "flowAlias": "User creation or linking",
                    "userSetupAllowed": false
                }
            ]
        },
        {
            "id": "24f2053d-aa1b-4c45-b3a9-c0bdcbccdebd",
            "alias": "forms",
            "description": "Username, password, otp and other auth forms.",
            "providerId": "basic-flow",
            "topLevel": false,
            "builtIn": true,
            "authenticationExecutions": [
                {
                    "authenticator": "auth-username-password-form",
                    "authenticatorFlow": false,
                    "requirement": "REQUIRED",
                    "priority": 10,
                    "autheticatorFlow": false,
                    "userSetupAllowed": false
                },
                {
                    "authenticatorFlow": true,
                    "requirement": "CONDITIONAL",
                    "priority": 20,
                    "autheticatorFlow": true,
                    "flowAlias": "Browser - Conditional OTP",
                    "userSetupAllowed": false
                }
            ]
        },
        {
            "id": "076aa4b6-5dc9-4f2f-968d-9bd5f7e0da1c",
            "alias": "registration",
            "description": "registration flow",
            "providerId": "basic-flow",
            "topLevel": true,
            "builtIn": true,
            "authenticationExecutions": [
                {
                    "authenticator": "registration-page-form",
                    "authenticatorFlow": true,
                    "requirement": "REQUIRED",
                    "priority": 10,
                    "autheticatorFlow": true,
                    "flowAlias": "registration form",
                    "userSetupAllowed": false
                }
            ]
        },
        {
            "id": "bd41295a-1557-42d4-a9f8-efbe03415c8c",
            "alias": "registration form",
            "description": "registration form",
            "providerId": "form-flow",
            "topLevel": false,
            "builtIn": true,
            "authenticationExecutions": [
                {
                    "authenticator": "registration-user-creation",
                    "authenticatorFlow": false,
                    "requirement": "REQUIRED",
                    "priority": 20,
                    "autheticatorFlow": false,
                    "userSetupAllowed": false
                },
                {
                    "authenticator": "registration-profile-action",
                    "authenticatorFlow": false,
                    "requirement": "REQUIRED",
                    "priority": 40,
                    "autheticatorFlow": false,
                    "userSetupAllowed": false
                },
                {
                    "authenticator": "registration-password-action",
                    "authenticatorFlow": false,
                    "requirement": "REQUIRED",
                    "priority": 50,
                    "autheticatorFlow": false,
                    "userSetupAllowed": false
                },
                {
                    "authenticator": "registration-recaptcha-action",
                    "authenticatorFlow": false,
                    "requirement": "DISABLED",
                    "priority": 60,
                    "autheticatorFlow": false,
                    "userSetupAllowed": false
                }
            ]
        },
        {
            "id": "17085386-5194-4dda-ad8d-a39a2bea2a52",
            "alias": "reset credentials",
            "description": "Reset credentials for a user if they forgot their password or something",
            "providerId": "basic-flow",
            "topLevel": true,
            "builtIn": true,
            "authenticationExecutions": [
                {
                    "authenticator": "reset-credentials-choose-user",
                    "authenticatorFlow": false,
                    "requirement": "REQUIRED",
                    "priority": 10,
                    "autheticatorFlow": false,
                    "userSetupAllowed": false
                },
                {
                    "authenticator": "reset-credential-email",
                    "authenticatorFlow": false,
                    "requirement": "REQUIRED",
                    "priority": 20,
                    "autheticatorFlow": false,
                    "userSetupAllowed": false
                },
                {
                    "authenticator": "reset-password",
                    "authenticatorFlow": false,
                    "requirement": "REQUIRED",
                    "priority": 30,
                    "autheticatorFlow": false,
                    "userSetupAllowed": false
                },
                {
                    "authenticatorFlow": true,
                    "requirement": "CONDITIONAL",
                    "priority": 40,
                    "autheticatorFlow": true,
                    "flowAlias": "Reset - Conditional OTP",
                    "userSetupAllowed": false
                }
            ]
        },
        {
            "id": "c7dd2b78-7710-4e28-8e37-fd2763ad5d39",
            "alias": "saml ecp",
            "description": "SAML ECP Profile Authentication Flow",
            "providerId": "basic-flow",
            "topLevel": true,
            "builtIn": true,
            "authenticationExecutions": [
                {
                    "authenticator": "http-basic-authenticator",
                    "authenticatorFlow": false,
                    "requirement": "REQUIRED",
                    "priority": 10,
                    "autheticatorFlow": false,
                    "userSetupAllowed": false
                }
            ]
        }
    ],
    "authenticatorConfig": [
        {
            "id": "0ca672ae-e7d5-4cb5-93e4-65edb9e536df",
            "alias": "create unique user config",
            "config": {
                "require.password.update.after.registration": "false"
            }
        },
        {
            "id": "9d84a725-4e33-49d8-bdbd-8df7c2d4361e",
            "alias": "review profile config",
            "config": {
                "update.profile.on.first.login": "missing"
            }
        }
    ],
    "requiredActions": [
        {
            "alias": "CONFIGURE_TOTP",
            "name": "Configure OTP",
            "providerId": "CONFIGURE_TOTP",
            "enabled": true,
            "defaultAction": false,
            "priority": 10,
            "config": {}
        },
        {
            "alias": "TERMS_AND_CONDITIONS",
            "name": "Terms and Conditions",
            "providerId": "TERMS_AND_CONDITIONS",
            "enabled": false,
            "defaultAction": false,
            "priority": 20,
            "config": {}
        },
        {
            "alias": "UPDATE_PASSWORD",
            "name": "Update Password",
            "providerId": "UPDATE_PASSWORD",
            "enabled": true,
            "defaultAction": false,
            "priority": 30,
            "config": {}
        },
        {
            "alias": "UPDATE_PROFILE",
            "name": "Update Profile",
            "providerId": "UPDATE_PROFILE",
            "enabled": true,
            "defaultAction": false,
            "priority": 40,
            "config": {}
        },
        {
            "alias": "VERIFY_EMAIL",
            "name": "Verify Email",
            "providerId": "VERIFY_EMAIL",
            "enabled": true,
            "defaultAction": false,
            "priority": 50,
            "config": {}
        },
        {
            "alias": "delete_account",
            "name": "Delete Account",
            "providerId": "delete_account",
            "enabled": false,
            "defaultAction": false,
            "priority": 60,
            "config": {}
        },
        {
            "alias": "webauthn-register",
            "name": "Webauthn Register",
            "providerId": "webauthn-register",
            "enabled": true,
            "defaultAction": false,
            "priority": 70,
            "config": {}
        },
        {
            "alias": "webauthn-register-passwordless",
            "name": "Webauthn Register Passwordless",
            "providerId": "webauthn-register-passwordless",
            "enabled": true,
            "defaultAction": false,
            "priority": 80,
            "config": {}
        },
        {
            "alias": "update_user_locale",
            "name": "Update User Locale",
            "providerId": "update_user_locale",
            "enabled": true,
            "defaultAction": false,
            "priority": 1000,
            "config": {}
        }
    ],
    "browserFlow": "browser",
    "registrationFlow": "registration",
    "directGrantFlow": "direct grant",
    "resetCredentialsFlow": "reset credentials",
    "clientAuthenticationFlow": "clients",
    "dockerAuthenticationFlow": "docker auth",
    "attributes": {
        "cibaBackchannelTokenDeliveryMode": "poll",
        "cibaAuthRequestedUserHint": "login_hint",
        "clientOfflineSessionMaxLifespan": "0",
        "oauth2DevicePollingInterval": "5",
        "clientSessionIdleTimeout": "0",
        "clientOfflineSessionIdleTimeout": "0",
        "cibaInterval": "5",
        "realmReusableOtpCode": "false",
        "cibaExpiresIn": "120",
        "oauth2DeviceCodeLifespan": "600",
        "parRequestUriLifespan": "60",
        "clientSessionMaxLifespan": "0",
        "frontendUrl": "",
        "acr.loa.map": "{}"
    },
    "keycloakVersion": "22.0.1",
    "userManagedAccessAllowed": false,
    "clientProfiles": {
        "profiles": []
    },
    "clientPolicies": {
        "policies": []
    }
}